{
  "project_info": {
    "project_number": "873753102387",
    "firebase_url": "https://fizan-tv-jan.firebaseio.com",
    "project_id": "fizan-tv-jan",
    "storage_bucket": "fizan-tv-jan.appspot.com"
  },
  "client": [
    {
      "client_info": {
        "mobilesdk_app_id": "1:873753102387:android:58801ba35913dc36",
        "android_client_info": {
          "package_name": "com.elite.fizantv"
        }
      },
      "oauth_client": [
        {
          "client_id": "873753102387-fs31mh1lk2gumsfkreu3gqfjv79cjpi2.apps.googleusercontent.com",
          "client_type": 3
        }
      ],
      "api_key": [
        {
          "current_key": "AIzaSyCrrWo79QwRYHvqFnoU99hvxTPgNtm3UOc"
        }
      ],
      "services": {
        "analytics_service": {
          "status": 1
        },
        "appinvite_service": {
          "status": 1,
          "other_platform_oauth_client": []
        },
        "ads_service": {
          "status": 2
        }
      }
    }
  ],
  "configuration_version": "1"
}